HW 6
…
Identifed_only <- sp_species %>% #filtering to just the trees which we know the species of
  filter( sp_test == 0) %>% 
  group_by(Genus) %>% #grouping by genus
  summarize(Species = n_distinct(Species))  #summarizing how many distinct/unique species names existed for each genus

Identifed_only |> as_tibble() |> arrange(-Species) #displaying from most species to least

# A tibble: 85 × 2
   Genus      Species
   <chr>        <int>
 1 pinus           15
 2 quercus         13
 3 fraxinus        11
 4 acer             7
 5 populus          5
 6 prunus           5
 7 ulmus            5
 8 eucalyptus       4
 9 acacia           3
10 celtis           3
# ℹ 75 more rows
…
Extra Credit

EC <- sp_species %>% 
  select(Age, Genus, AvgCdia..m.)

EC_agetable <- EC %>% #calculating the mean of the age of each genus
  group_by(Genus) %>%  #group by genus
  summarize( Average_Age = mean(Age)) #find the mean age of each genus

  EC_agetable  |> as_tibble() |> arrange(-Average_Age) 

# A tibble: 85 × 2
   Genus       Average_Age
   <chr>             <dbl>
 1 swietenia          70.0
 2 casuarina          69.9
 3 cocos              55.6
 4 ficus              55.5
 5 calophyllum        46.1
 6 samanea            43.5
 7 cedrus             40.1
 8 robinia            39.6
 9 schinus            39.0
10 cinnamomum         38.6
# ℹ 75 more rows
…
EC_final <- EC_fast %>% 
  filter(Average_Age <= 20) %>% 
  select(-Average_Age_color)

EC_final |> as_tibble() |> arrange(-Avg_Crown)

# A tibble: 21 × 3
   Genus        Average_Age Avg_Crown
   <chr>              <dbl>     <dbl>
 1 zelkova             18.1     12.3 
 2 morus               17.9     12.3 
 3 prosopis            17        9.27
 4 aesculus            -1        9.12
 5 parkinsonia         18.2      7.95
 6 pistacia            19.2      7.40
 7 koelreuteria        19.2      7.23
 8 cercis              -1        7.18
 9 prunus              20.0      7.12
10 triadica            14.2      7.11
# ℹ 11 more rows
…
