Restaurant Data Analysis
…
test3 <- restaurant_data %>% 
  group_by(INSPECTOR) %>% 
  summarize(average_by_inspector = mean(SCORE)) %>% 
  ungroup()

test3

# A tibble: 39 × 2
   INSPECTOR           average_by_inspector
   <chr>                              <dbl>
 1 Angela Myers                        96.9
 2 Angela Stocks                       96.7
 3 Brittny Thomas                      98  
 4 Christy Klaus                       96.3
 5 Cristofer LeClair                   97.7
 6 Daryl Beasley                       95.8
 7 David Adcock                        97.7
 8 Dipatrimarki Farkas                 97.8
 9 Elizabeth Jackson                   96.6
10 Ginger Johnson                      97.6
# ℹ 29 more rows
…
Fascinatingly, it isn’t! examining the dataset indicates that it’s Inspector Meghan Scott who assigned the lone 0 score–not this outlier Inspector Thomas Jumalon. What could be causing this?

##Sample Sizes

Perhaps it’s the sample size to blame? How many inspections has each inspector carried out?

samplesize_inspector <-restaurant_data %>% 
  mutate(inspected = 1) %>% 
  group_by(INSPECTOR) %>% 
  summarize(inspections = sum(inspected)) %>% 
  ungroup()

samplesize_inspector

# A tibble: 39 × 2
   INSPECTOR           inspections
   <chr>                     <dbl>
 1 Angela Myers                138
 2 Angela Stocks                52
 3 Brittny Thomas                3
 4 Christy Klaus               140
 5 Cristofer LeClair           128
 6 Daryl Beasley                16
 7 David Adcock                 71
 8 Dipatrimarki Farkas         155
 9 Elizabeth Jackson           137
10 Ginger Johnson               45
# ℹ 29 more rows
…
